<?xml version="1.0" encoding="UTF-8" standalone="no"?>
<!-- Created with Inkscape (http://www.inkscape.org/) -->

<svg
   xmlns:dc="http://purl.org/dc/elements/1.1/"
   xmlns:cc="http://creativecommons.org/ns#"
   xmlns:rdf="http://www.w3.org/1999/02/22-rdf-syntax-ns#"
   xmlns:svg="http://www.w3.org/2000/svg"
   xmlns="http://www.w3.org/2000/svg"
   xmlns:sodipodi="http://sodipodi.sourceforge.net/DTD/sodipodi-0.dtd"
   xmlns:inkscape="http://www.inkscape.org/namespaces/inkscape"
   width="40"
   height="40"
   viewBox="0 0 10.583333 10.583334"
   version="1.1"
   id="svg8"
   inkscape:version="0.92.3 (2405546, 2018-03-11)"
   sodipodi:docname="deceptionchannel.svg">
  <defs
     id="defs2" />
  <sodipodi:namedview
     id="base"
     pagecolor="#ffffff"
     bordercolor="#666666"
     borderopacity="1.0"
     inkscape:pageopacity="0.0"
     inkscape:pageshadow="2"
     inkscape:zoom="23.70553"
     inkscape:cx="14.771949"
     inkscape:cy="22.952286"
     inkscape:document-units="mm"
     inkscape:current-layer="layer1"
     showgrid="false"
     units="px"
     showguides="false"
     inkscape:window-width="1920"
     inkscape:window-height="1017"
     inkscape:window-x="1432"
     inkscape:window-y="-8"
     inkscape:window-maximized="1" />
  <metadata
     id="metadata5">
    <rdf:RDF>
      <cc:Work
         rdf:about="">
        <dc:format>image/svg+xml</dc:format>
        <dc:type
           rdf:resource="http://purl.org/dc/dcmitype/StillImage" />
        <dc:title></dc:title>
      </cc:Work>
    </rdf:RDF>
  </metadata>
  <g
     inkscape:label="Camada 1"
     inkscape:groupmode="layer"
     id="layer1"
     transform="translate(0,-286.41664)">
    <rect
       style="fill:#ffffff;fill-opacity:1;stroke:#000000;stroke-width:0.33491632;stroke-miterlimit:4;stroke-dasharray:none"
       id="rect6652"
       width="10.172467"
       height="8.7875652"
       x="0.20332871"
       y="286.62335"
       rx="0.42208782"
       ry="0.36385596" />
    <circle
       style="fill:#000000;fill-opacity:1;stroke:#000000;stroke-width:0.36247155;stroke-miterlimit:4;stroke-dasharray:none"
       id="path6675"
       cx="2.9912148"
       cy="290.85013"
       r="0.98443788" />
    <path
       style="fill:none;stroke:#000000;stroke-width:0.26458332px;stroke-linecap:butt;stroke-linejoin:miter;stroke-opacity:1"
       d="m 4.3752097,288.72948 c 0.6024403,0.18962 1.9372522,2.70205 0.1116125,4.28592 v 0"
       id="path6683"
       inkscape:connector-curvature="0"
       sodipodi:nodetypes="ccc" />
    <path
       sodipodi:nodetypes="ccc"
       inkscape:connector-curvature="0"
       id="path6700"
       d="m 5.4024813,288.07019 c 0.5952185,0.24729 1.9140295,3.52363 0.1102745,5.58909 v 0"
       style="fill:none;stroke:#000000;stroke-width:0.30032536px;stroke-linecap:butt;stroke-linejoin:miter;stroke-opacity:1" />
    <path
       sodipodi:nodetypes="ccc"
       inkscape:connector-curvature="0"
       id="path6700-8"
       d="m 6.4582186,287.322 c 0.5870379,0.30809 1.8877235,4.3899 0.1087589,6.96314 v 0"
       style="fill:none;stroke:#000000;stroke-width:0.33290371px;stroke-linecap:butt;stroke-linejoin:miter;stroke-opacity:1" />
  </g>
  <g
     inkscape:groupmode="layer"
     id="layer2"
     inkscape:label="Camada 2">
    <g
       id="g6657"
       transform="translate(-0.01116125,0.0223225)">
      <circle
         r="1.7299936"
         cy="8.6970825"
         cx="8.728097"
         id="path5736"
         style="fill:#000000;stroke:#000000;stroke-width:0.26458332" />
      <text
         transform="scale(0.89953232,1.1116888)"
         id="text5740"
         y="8.8975763"
         x="8.720048"
         style="font-style:normal;font-weight:normal;font-size:2.82757521px;line-height:1.25;font-family:sans-serif;letter-spacing:0px;word-spacing:0px;fill:#000000;fill-opacity:1;stroke:none;stroke-width:0.17672345"
         xml:space="preserve"><tspan
           style="fill:#ffffff;stroke-width:0.17672345"
           y="8.8975763"
           x="8.720048"
           id="tspan5738"
           sodipodi:role="line">D</tspan></text>
    </g>
  </g>
</svg>
